<?xml version="1.0" encoding="utf-8"?>
<!-- Generator: Adobe Illustrator 25.2.0, SVG Export Plug-In . SVG Version: 6.00 Build 0)  -->
<!DOCTYPE svg PUBLIC "-//W3C//DTD SVG 1.1//EN" "http://www.w3.org/Graphics/SVG/1.1/DTD/svg11.dtd" [
	<!ENTITY ns_extend "http://ns.adobe.com/Extensibility/1.0/">
	<!ENTITY ns_ai "http://ns.adobe.com/AdobeIllustrator/10.0/">
	<!ENTITY ns_graphs "http://ns.adobe.com/Graphs/1.0/">
	<!ENTITY ns_vars "http://ns.adobe.com/Variables/1.0/">
	<!ENTITY ns_imrep "http://ns.adobe.com/ImageReplacement/1.0/">
	<!ENTITY ns_sfw "http://ns.adobe.com/SaveForWeb/1.0/">
	<!ENTITY ns_custom "http://ns.adobe.com/GenericCustomNamespace/1.0/">
	<!ENTITY ns_adobe_xpath "http://ns.adobe.com/XPath/1.0/">
]>
<svg version="1.1" id="Layer_1" xmlns:x="&ns_extend;" xmlns:i="&ns_ai;" xmlns:graph="&ns_graphs;"
	 xmlns="http://www.w3.org/2000/svg" xmlns:xlink="http://www.w3.org/1999/xlink" x="0px" y="0px" viewBox="0 0 512 512"
	 style="enable-background:new 0 0 512 512;" xml:space="preserve">
<style type="text/css">
	.st0{fill:#FFFFFF;}
</style>
<metadata>
	<sfw  xmlns="&ns_sfw;">
		<slices></slices>
		<sliceSourceBounds  bottomLeftOrigin="true" height="511.9" width="512" x="0" y="0"></sliceSourceBounds>
	</sfw>
</metadata>
<path class="st0" d="M472.5,136c-8.2-54.9-43.2-89.9-101.7-101.7C333,2,308-4.7,256,2.9C204-4.7,179,2,141.2,34.3
	C82.7,46.1,47.7,81.1,39.5,136C-11.3,191-4,238,11.4,268.2c13.6,26.5,42.6,62,69.6,92.1V432c0,33.1,26.9,60,60,60h76
	c23.5,18.2,32.2,20,38.9,20c6.9,0,15.8-1.8,40.5-21.2v1.2H373c33.1,0,60-26.9,60-60V358c26.4-29.7,54.3-64,67.6-89.9
	C516,238,523.3,191,472.5,136z M430.9,131.9c-7.8,14.4-53.3,97.1-110.3,175.7c26.5-73.1,47.1-149.8,61.5-228.7
	C408.6,88.4,424.4,105.7,430.9,131.9z M344.2,64.1C328.9,150.4,306,233.9,276,312.9V221V40.7C307.6,37.8,321,44.2,344.2,64.1z
	 M222.8,40c4.1,0,8.4,0.2,13.2,0.7V221v91.8c-30-79-52.9-162.5-68.2-248.8C187.5,47.2,200.1,40,222.8,40z M129.8,78.8
	c14.4,79,35.1,155.6,61.5,228.7C134.4,229,88.9,146.3,81.1,131.9C87.6,105.7,103.4,88.4,129.8,78.8z M121,432v-28.9
	c4.8,4.9,8.9,9.1,12,12.2c12.9,13,25.7,25.4,37.9,36.7H141C130,452,121,443,121,432z M393,432c0,11-9,20-20,20h-31.9
	c12.1-11.3,25-23.7,37.9-36.7c3.5-3.5,8.3-8.4,14-14.2V432z M465,249.9c-13.9,27.1-55.5,77.4-108.6,131.4
	c-50.2,51-87,81.4-100.4,89.4c-13.4-7.9-50.2-38.4-100.4-89.4C102.5,327.4,60.9,277,47,249.9c-4.8-9.3-18.2-35.5,12.1-75.2
	c23,40.5,70.8,120.7,126.1,191c17.2-19.8,42.5-32.4,70.8-32.4c28.3,0,53.6,12.5,70.8,32.4c55.3-70.3,103-150.5,126.1-191
	C483.2,214.4,469.7,240.6,465,249.9z"/>
</svg>
