<?xml version="1.0" encoding="utf-8"?>
<!-- Generator: Adobe Illustrator 17.0.0, SVG Export Plug-In . SVG Version: 6.00 Build 0)  -->
<!DOCTYPE svg PUBLIC "-//W3C//DTD SVG 1.1//EN" "http://www.w3.org/Graphics/SVG/1.1/DTD/svg11.dtd">
<svg version="1.1" id="Layer_1" xmlns="http://www.w3.org/2000/svg" xmlns:xlink="http://www.w3.org/1999/xlink" x="0px" y="0px"
	 width="80px" height="80px" viewBox="0 0 80 80" enable-background="new 0 0 80 80" xml:space="preserve">
<g>
	
		<linearGradient id="SVGID_1_" gradientUnits="userSpaceOnUse" x1="268.2339" y1="-314" x2="343.7661" y2="-314" gradientTransform="matrix(1 0 0 -1 -266 -274)">
		<stop  offset="0" style="stop-color:#00EFD1"/>
		<stop  offset="1" style="stop-color:#00ACEA"/>
	</linearGradient>
	<circle fill="url(#SVGID_1_)" cx="40" cy="40" r="37.766"/>
	<path fill="#FFFFFF" d="M67.9,37.907h-8.439c-0.768,0-1.464,0.419-1.813,1.046l-6.626,11.718l-9.486-27.134
		c-0.28-0.837-1.046-1.395-1.883-1.395c-0.837,0-1.674,0.488-2.023,1.256l-9.417,21.553l-7.951-7.812
		c-0.419-0.419-0.907-0.627-1.464-0.627H12.1c-1.186,0-2.093,0.907-2.093,2.093s0.907,2.093,2.093,2.093h5.86l9.486,9.347
		c0.488,0.488,1.186,0.698,1.883,0.557c0.696-0.141,1.256-0.557,1.535-1.186l8.51-19.461l9.207,26.505
		c0.28,0.768,0.976,1.325,1.813,1.395c0.069,0,0.139,0,0.208,0c0.768,0,1.464-0.419,1.813-1.046l8.231-14.717h7.255
		c1.186,0,2.093-0.907,2.093-2.093C69.992,38.814,69.086,37.907,67.9,37.907z"/>
</g>
<g>
</g>
<g>
</g>
<g>
</g>
<g>
</g>
<g>
</g>
<g>
</g>
</svg>
