<svg xmlns="http://www.w3.org/2000/svg" xmlns:xlink="http://www.w3.org/1999/xlink" width="60" height="60" viewBox="0 0 60 60">
  <defs>
    <rect id="rect-2" width="28" height="28" x="16" y="16"/>
    <mask id="mask-3" maskContentUnits="userSpaceOnUse" maskUnits="userSpaceOnUse">
      <rect width="60" height="60" x="0" y="0" fill="black"/>
      <use fill="white" xlink:href="#rect-2"/>
    </mask>
  </defs>
  <g>
    <g opacity=".2">
      <ellipse cx="30" cy="30" fill="rgb(255,255,255)" rx="30" ry="30"/>
    </g>
    <g>
      <use fill="none" xlink:href="#rect-2"/>
      <g mask="url(#mask-3)">
        <path fill="none" stroke="rgb(255,255,255)" stroke-dasharray="0 0 0 0" stroke-linecap="round" stroke-linejoin="round" stroke-width="2" d="M42.83333333 24.16666667L34.66666667 30l8.16666666 5.83333333V24.16666667z"/>
        <path fill="none" stroke="rgb(255,255,255)" stroke-dasharray="0 0 0 0" stroke-linecap="round" stroke-linejoin="round" stroke-width="2" d="M19.16666667 21.83333333h13.5c1.10383005 0 2 .89616995 2 2v12.33333334c0 1.10383005-.89616995 2-2 2h-13.5c-1.10383005 0-2-.89616995-2-2V23.83333333c0-1.10383005.89616995-2 2-2z"/>
      </g>
    </g>
  </g>
</svg>
