<?xml version="1.0" encoding="utf-8"?>
<!-- Generator: Adobe Illustrator 17.0.0, SVG Export Plug-In . SVG Version: 6.00 Build 0)  -->
<!DOCTYPE svg PUBLIC "-//W3C//DTD SVG 1.1//EN" "http://www.w3.org/Graphics/SVG/1.1/DTD/svg11.dtd">
<svg version="1.1" id="Layer_1" xmlns="http://www.w3.org/2000/svg" xmlns:xlink="http://www.w3.org/1999/xlink" x="0px" y="0px"
	 width="34px" height="34px" viewBox="0 0 34 34" enable-background="new 0 0 34 34" xml:space="preserve">
<g>
	<path fill="#FFE100" d="M30.748,30.261H3.252c-0.876,0-1.586-0.71-1.586,5.517V18.856c0-7.979,0.71-8.688,1.586-8.688h27.495
		c0.876,0,1.586,0.71,1.586,1.586v16.92C32.334,29.55,31.624,30.261,30.748,30.261"/>
	<path fill="#FDCC00" d="M30.219,10.167V8.582c0-0.876-0.711-1.586-1.586-1.586h-14.53c-0.175,0-0.339-0.08-0.448-0.215L11.606,4.22
		c-0.2-0.251-0.503-0.396-0.824-0.396H5.367c-0.876,0-1.586,0.71-1.586,1.586v4.759L30.219,10.167L30.219,10.167z"/>
	<g>
		<path fill="#FFFFFF" d="M3.252,28.674v-16.92c0-0.876,0.71-1.586,1.586-1.586H3.252c-0.876,0-1.586,0.71-1.586,8.688v16.92
			c0-6.226,0.71-5.517,1.586-5.517h1.586C3.963,30.261,3.252,29.55,3.252,28.674"/>
		<path fill="#FFFFFF" d="M6.954,3.822H5.368c-0.876,0-1.586,0.71-1.586,1.586v4.759h1.586V5.408
			C5.367,4.532,6.078,3.822,6.954,3.822"/>
	</g>
	<g>
		<path fill="#FFA800" d="M30.748,10.167h-1.586c0.876,0,1.586,0.71,1.586,1.586v16.92c0,0.876-0.71,1.586-1.586,1.586h1.586
			c0.876,0,1.586-0.71,1.586-1.586v-16.92C32.334,10.878,31.624,10.167,30.748,10.167"/>
		<path fill="#FFA800" d="M28.632,6.995h-1.586c0.876,0,1.586,0.71,1.586,1.586v1.586h1.586V8.581
			C30.219,7.705,29.508,6.995,28.632,6.995"/>
	</g>
	<g>
		<path d="M29.162,13.869h-8.461c-0.293,0-0.528-0.237-0.528-0.528c0-0.292,0.236-0.528,0.528-0.528h8.46
			c0.293,0,0.528,0.237,0.528,0.528C29.69,13.632,29.454,13.869,29.162,13.869"/>
		<path d="M29.162,15.984h-4.23c-0.293,0-0.528-0.237-0.528-0.528c0-0.291,0.236-0.528,0.528-0.528h4.23
			c0.293,0,0.528,0.237,0.528,0.528S29.454,15.984,29.162,15.984"/>
		<path d="M30.748,30.789H3.252c-1.166,0-2.115-0.949-2.115-2.115v-7.403c0-0.292,0.236-0.528,0.528-0.528s0.528,0.237,0.528,0.528
			v7.403c0,0.583,0.474,1.058,1.058,1.058h27.495c0.583,0,1.058-0.474,1.058-1.058V11.754c0-0.583-0.474-1.058-1.058-1.058H3.252
			c-0.583,0-1.058,0.474-1.058,1.058v12.39c0,0.292-0.236,0.528-0.528,0.528s-0.529-0.236-0.529-0.528v-12.39
			c0-1.166,0.949-2.115,2.115-2.115h27.495c1.166,0,2.115,0.949,2.115,2.115v16.92C32.863,29.841,31.914,30.789,30.748,30.789"/>
		<path d="M4.31,9.638h25.381V8.581c0-0.583-0.474-1.058-1.058-1.058h-14.53c-0.336,0-0.65-0.15-0.86-0.414l-2.05-2.562
			c-0.1-0.125-0.25-0.197-0.411-0.197H5.367c-0.583,0-1.058,0.474-1.058,1.058C4.31,5.409,4.31,9.638,4.31,9.638z M30.219,10.696
			H3.781c-0.293,0-0.528-0.237-0.528-0.528V5.409c0-1.166,0.949-2.115,2.115-2.115h5.415c0.483,0,0.934,0.217,1.236,0.594
			l2.05,2.561l14.564,0.017c1.166,0,2.115,0.949,2.115,2.115v1.586C30.748,10.46,30.511,10.696,30.219,10.696L30.219,10.696z"/>
	</g>
</g>
</svg>
