<svg xmlns="http://www.w3.org/2000/svg" xmlns:xlink="http://www.w3.org/1999/xlink" width="171" height="171" viewBox="0 0 171 171">
  <defs>
    <rect id="rect-2" width="96" height="97" x="45.5" y="37"/>
    <mask id="mask-3" maskContentUnits="userSpaceOnUse" maskUnits="userSpaceOnUse">
      <rect width="171" height="171" x="0" y="0" fill="black"/>
      <use fill="white" xlink:href="#rect-2"/>
    </mask>
  </defs>
  <g>
    <ellipse cx="85.5" cy="85.5" fill="rgb(139,185,255)" rx="85.5" ry="85.5"/>
    <g>
      <use fill="none" xlink:href="#rect-2"/>
      <g mask="url(#mask-3)">
        <g>
          <path fill="rgb(244,244,246)" fill-rule="evenodd" d="M98.1875 37h-41.25c-5.6863125 0-10.3125 4.67437695-10.3125 10.41992188v76.16015624C46.625 129.32562305 51.2511875 134 56.9375 134h41.25c5.6863125 0 10.3125-4.67437695 10.3125-10.41992188V47.41992188C108.5 41.67437694 103.8738125 37 98.1875 37z"/>
          <path fill="rgb(226,223,244)" fill-rule="evenodd" d="M98.1875 37h-20.625v97h20.625c5.6863125 0 10.3125-4.67437695 10.3125-10.41992188V47.41992188C108.5 41.67437694 103.8738125 37 98.1875 37z"/>
          <path fill="rgb(139,185,255)" fill-rule="evenodd" d="M56.9375 42.68359375h41.25c2.5846875 0 4.6875 2.1247168 4.6875 4.73632813v69.52929687H52.25V47.41992187c0-2.61161132 2.1028125-4.73632812 4.6875-4.73632812z"/>
          <path fill="rgb(125,129,231)" fill-rule="evenodd" d="M98.1875 42.68359375h-20.625v74.265625h25.3125V47.41992187c0-2.61161132-2.1028125-4.73632812-4.6875-4.73632812z"/>
          <path fill="rgb(244,244,246)" fill-rule="evenodd" d="M81.3125 54.05078125h-7.5c-1.55325 0-2.8125-1.27236719-2.8125-2.84179688 0-1.56942968 1.25925-2.84179687 2.8125-2.84179687h7.5c1.55325 0 2.8125 1.27236719 2.8125 2.84179688 0 1.56942968-1.25925 2.84179687-2.8125 2.84179687z"/>
          <path fill="rgb(226,223,244)" fill-rule="evenodd" d="M81.3125 48.3671875h-3.75v5.68359375h3.75c1.55325 0 2.8125-1.27236719 2.8125-2.84179688 0-1.56942968-1.25925-2.84179687-2.8125-2.84179687z"/>
          <ellipse cx="63.5" cy="51.209" fill="rgb(244,244,246)" rx="2.813" ry="2.842"/>
        </g>
        <g>
          <g>
            <path fill="rgb(255,180,84)" fill-rule="evenodd" d="M116 79.05859375c-3.101625 0-5.625-2.54966016-5.625-5.68359375 0-3.1339336 2.523375-5.68359375 5.625-5.68359375s5.625 2.54966016 5.625 5.68359375c0 3.1339336-2.523375 5.68359375-5.625 5.68359375z"/>
            <path fill="rgb(255,180,84)" fill-rule="evenodd" d="M102.875 79.05859375c-4.1355 0-7.5-3.39954687-7.5-7.578125s3.3645-7.578125 7.5-7.578125 7.5 3.39954687 7.5 7.578125-3.3645 7.578125-7.5 7.578125z"/>
            <path fill="rgb(255,180,84)" fill-rule="evenodd" d="M137.5623125 107.4765625c-.42975 0-.860625-.0994629-1.2575625-.2999043l-11.25-5.68359375c-.952875-.48158984-1.55475-1.46541992-1.55475-2.54189258v-11.3671875c0-1.07647265.601875-2.06030273 1.55475-2.54189257l11.25-5.68359375c.8716875-.44047852 1.9070625-.3933047 2.736375.1244707.8293125.5177754 1.333875 1.43245508 1.333875 2.41742187v22.734375c0 .9849668-.5045625 1.89964649-1.333875 2.41742188-.4515.2820957-.9645.424375-1.4788125.424375z"/>
          </g>
          <path fill="rgb(255,112,56)" fill-rule="evenodd" d="M123.5 93.26757813v5.68359374c0 1.07647266.601875 2.06030274 1.55475 2.54189258l11.25 5.68359375c.3969375.20063086.8278125.2999043 1.2575625.2999043.5143125 0 1.0273125-.1422793 1.4788125-.424375.8293125-.5177754 1.333875-1.43245508 1.333875-2.41742188v-11.3671875H123.5z"/>
          <path fill="rgb(255,226,120)" fill-rule="evenodd" d="M122.5625 107.4765625h-30c-3.6185625 0-6.5625-2.97460352-6.5625-6.63085938v-15.15625c0-3.65625585 2.9439375-6.63085937 6.5625-6.63085937h30c3.6185625 0 6.5625 2.97460352 6.5625 6.63085938v15.15625c0 3.65625585-2.9439375 6.63085937-6.5625 6.63085937z"/>
          <path fill="rgb(255,180,84)" fill-rule="evenodd" d="M86 93.26757813v7.578125c0 3.65625585 2.9439375 6.63085937 6.5625 6.63085937h30c3.6185625 0 6.5625-2.97460352 6.5625-6.63085938v-7.578125H86z"/>
        </g>
      </g>
    </g>
  </g>
</svg>
