<svg id="allergy-alert-icon" xmlns="http://www.w3.org/2000/svg" width="128" height="128" viewBox="0 0 128 128">
  <circle id="Ellipse_67" data-name="Ellipse 67" cx="64" cy="64" r="64" fill="#fff"/>
  <path id="Path_441" data-name="Path 441" d="M87.29,90c2.27,7.39,7.62,12.29,12,11s6-8.4,3.74-15.79S92.62,68,92.62,68s-8.91,10.33-5.33,22Z" fill="#ffc943"/>
  <path id="Path_442" data-name="Path 442" d="M75,83.12c7,2.88,11.3,8.57,9.6,12.67S75.85,100.86,68.87,98,53.11,86.3,53.11,86.3,64,78.55,75,83.12Z" fill="#ffc943"/>
  <path id="Path_443" data-name="Path 443" d="M70.15,68.38c2.07,6.75,7,11.23,10.92,10S86.57,70.72,84.5,64,75,48.28,75,48.28,66.89,57.75,70.15,68.38Z" fill="#ffcc5a"/>
  <path id="Path_444" data-name="Path 444" d="M61.47,65c5.83,2.42,9.4,7.16,8,10.58s-7.3,4.23-13.12,1.81S43.2,67.62,43.2,67.62s9.1-6.4,18.27-2.62Z" fill="#ffcc5a"/>
  <path id="Path_445" data-name="Path 445" d="M55.52,55.17c1.76,5.74,5.92,9.55,9.29,8.52s4.67-6.53,2.91-12.26-8.06-13.34-8.06-13.34S52.75,46.14,55.52,55.17Z" fill="#ffcf6e"/>
  <path id="Path_446" data-name="Path 446" d="M45.51,48.36c5.42,2.25,8.75,6.66,7.43,9.84s-6.79,3.94-12.21,1.68S28.48,50.8,28.48,50.8,37,44.81,45.51,48.36Z" fill="#ffcf6e"/>
  <path id="Path_447" data-name="Path 447" d="M39.15,39.61c1.61,5.24,5.41,8.72,8.49,7.78s4.26-6,2.65-11.2S42.93,24,42.93,24,36.61,31.36,39.15,39.61Z" fill="#ffd488"/>
  <path id="Path_448" data-name="Path 448" d="M34,33.91c3.19,2.63,4.69,6.08,3.35,7.71s-5,.83-8.21-1.8-6.6-8.37-6.6-8.37S29,29.77,34,33.91Z" fill="#ffd488"/>
  <g id="Group_691" data-name="Group 691">
    <path id="Path_449" data-name="Path 449" d="M64,128a64,64,0,1,1,64-64,64,64,0,0,1-64,64ZM64,8a56,56,0,1,0,56,56A56,56,0,0,0,64,8Z" fill="#ff8a65"/>
    <path id="Path_450" data-name="Path 450" d="M21.57,110.43a4,4,0,0,1-2.83-6.83L103.6,18.75a4,4,0,1,1,5.66,5.66L24.4,109.25a4,4,0,0,1-2.83,1.18Z" fill="#ff8a65"/>
  </g>
</svg>
