<svg xmlns="http://www.w3.org/2000/svg" width="100" height="100" viewBox="0 0 100 100">
  <g id="consolidated-icon" transform="translate(-64 -140)">
    <circle id="Ellipse_13" data-name="Ellipse 13" cx="50" cy="50" r="50" transform="translate(64 140)" fill="#955fa8"/>
    <g id="food-serving" transform="translate(87.687 163.776)">
      <path id="Path_260" data-name="Path 260" d="M11.532,20.885v2.938H4.056a.742.742,0,0,0-.742.742v4.008a.742.742,0,0,0,.742.742H14.32l8.255,8.252L14.1,46.038a.742.742,0,0,0,0,1.05l2.836,2.828a.742.742,0,0,0,1.049,0l8.468-8.468,8.471,8.468a.742.742,0,0,0,1.049,0l2.836-2.828a.742.742,0,0,0,0-1.05l-8.469-8.469L38.6,29.315H48.863a.742.742,0,0,0,.742-.742V24.565a.742.742,0,0,0-.742-.742H41.387V20.885a.742.742,0,0,0-.742-.742h-.773c.033-.371.054-.735.054-1.086A13.482,13.482,0,0,0,30.558,6.236a4.1,4.1,0,0,0-8.2,0,13.471,13.471,0,0,0-9.376,12.822c0,.34.023.7.059,1.086h-.772a.742.742,0,0,0-.742.742ZM26.461,3.708a2.622,2.622,0,0,1,2.571,2.123c-.05-.01-.1-.013-.152-.022a13.454,13.454,0,0,0-4.817,0c-.057.01-.116.014-.173.025a2.622,2.622,0,0,1,2.571-2.122Zm1.591,3.467a12,12,0,0,1,10.39,11.882c0,.348-.019.711-.056,1.084H14.532a10.188,10.188,0,0,1-.061-1.084A11.994,11.994,0,0,1,28.052,7.175ZM17.464,48.342l-1.785-1.78,7.945-7.945L25.408,40.4Zm17.99,0L16.42,29.317h3.573L37.239,46.562ZM29.3,36.519l-1.787-1.787,5.416-5.416H36.5Zm-2.836-2.836-4.368-4.368h8.736Zm21.662-5.852H4.8V25.307H48.121Zm-35.1-6.2H39.9v2.2H13.016Z" fill="#fff" stroke="#fff" stroke-width="0.5"/>
    </g>
  </g>
</svg>
