<?xml version="1.0" encoding="utf-8"?>
<!-- Generator: Adobe Illustrator 25.2.0, SVG Export Plug-In . SVG Version: 6.00 Build 0)  -->
<!DOCTYPE svg PUBLIC "-//W3C//DTD SVG 1.1//EN" "http://www.w3.org/Graphics/SVG/1.1/DTD/svg11.dtd" [
	<!ENTITY ns_extend "http://ns.adobe.com/Extensibility/1.0/">
	<!ENTITY ns_ai "http://ns.adobe.com/AdobeIllustrator/10.0/">
	<!ENTITY ns_graphs "http://ns.adobe.com/Graphs/1.0/">
	<!ENTITY ns_vars "http://ns.adobe.com/Variables/1.0/">
	<!ENTITY ns_imrep "http://ns.adobe.com/ImageReplacement/1.0/">
	<!ENTITY ns_sfw "http://ns.adobe.com/SaveForWeb/1.0/">
	<!ENTITY ns_custom "http://ns.adobe.com/GenericCustomNamespace/1.0/">
	<!ENTITY ns_adobe_xpath "http://ns.adobe.com/XPath/1.0/">
]>
<svg version="1.1" id="Layer_1" xmlns:x="&ns_extend;" xmlns:i="&ns_ai;" xmlns:graph="&ns_graphs;"
	 xmlns="http://www.w3.org/2000/svg" xmlns:xlink="http://www.w3.org/1999/xlink" x="0px" y="0px" viewBox="0 0 693.2 520.9"
	 style="enable-background:new 0 0 693.2 520.9;" xml:space="preserve">
<style type="text/css">
	.st0{opacity:0.8;fill:#C6EDF7;}
	.st1{opacity:0.75;}
	.st2{fill:#6CB597;}
	.st3{fill:#102A54;}
	.st4{fill:#FF9811;}
	.st5{fill:#FFA733;}
	.st6{fill:#FFC477;}
	.st7{fill:#FFB655;}
	.st8{fill:#3BB54A;}
	.st9{fill:#D4E1F4;}
</style>
<metadata>
	<sfw  xmlns="&ns_sfw;">
		<slices></slices>
		<sliceSourceBounds  bottomLeftOrigin="true" height="475.3" width="661.8" x="39.6" y="21.4"></sliceSourceBounds>
	</sfw>
</metadata>
<g>
	<circle class="st0" cx="344.2" cy="256.6" r="236.5"/>
	<g class="st1">
		<path class="st2" d="M220.4,495.3c0,0,136.5-72.6,151.9-147.8c0,0-76.1,34.3-149.4,97.6c0,0,67.6-51,67.6-132.2
			c0,0-83,69.8-115.6,126.1c0,0,8.6-74.1-10.5-110.6c0,0-32.6,52.7-25.2,122.9c0,0-33.7-37.5-82.4-54.1c0,0,13.5,60.9,52.2,76.3
			c0,0-44.9-17.8-89.8-15.4c0,0,15.6,37.2,54.1,37.2C80.8,495.3,220.4,495.3,220.4,495.3z"/>
		<path class="st3" d="M139.5,495.3c0,0-16-8.5-28.9-43.3c0,0,30.8,10.3,44,21.7c0,0,18.7-26.8,46.9-49.5c0,0,8.4,31.5-11,54.2
			c0,0,34.9-18,94.3-24.4c0,0-22.6,34.1-56.3,41.3H139.5z"/>
	</g>
	<g class="st1">
		<path class="st2" d="M529.2,495.3c0,0,136.5-72.6,151.9-147.8c0,0-76.1,34.3-149.4,97.6c0,0,67.6-51,67.6-132.2
			c0,0-83,69.8-115.6,126.1c0,0,8.6-74.1-10.5-110.6c0,0-32.6,52.7-25.2,122.9c0,0-33.7-37.5-82.4-54.1c0,0,13.5,60.9,52.2,76.3
			c0,0-44.9-17.8-89.8-15.4c0,0,15.6,37.2,54.1,37.2C389.6,495.3,529.2,495.3,529.2,495.3z"/>
		<path class="st3" d="M448.3,495.3c0,0-16-8.5-28.9-43.3c0,0,30.8,10.3,44,21.7c0,0,18.7-26.8,46.9-49.5c0,0,8.4,31.5-11,54.2
			c0,0,34.9-18,94.3-24.4c0,0-22.6,34.1-56.3,41.3H448.3z"/>
	</g>
	<g>
		<g>
			<circle class="st4" cx="339.9" cy="240.7" r="23.9"/>
			<path class="st5" d="M172.8,415.8c-8.8,0-15.9,7.2-15.9,15.9c0,8.8,7.2,15.9,15.9,15.9H507c8.8,0,15.9-7.2,15.9-15.9
				c0-8.8-7.2-15.9-15.9-15.9H172.8z"/>
			<path class="st6" d="M208.1,495.3h263.5c6.9,0,12.9-4.4,15.1-10.8l12.3-36.9H180.7l12.3,36.9C195.2,491,201.2,495.3,208.1,495.3
				L208.1,495.3z"/>
			<path class="st7" d="M496.3,455.5l2.7-8H180.7l2.7,8H496.3z"/>
			<path class="st6" d="M339.9,256.6c-87.9,0-159.2,71.2-159.2,159.2H499C499,327.8,427.8,256.6,339.9,256.6z"/>
			<path class="st7" d="M435.4,288.6v55.5c0,35.1-28.5,63.7-63.7,63.7H181.1c-0.1,2.7-0.4,5.3-0.4,8H499
				C499,365.7,475.5,318.6,435.4,288.6z"/>
			<g>
				<path class="st5" d="M470.9,381.9c-10.8-41.5-40.6-75.4-80.3-91.6c-4.1-1.7-8.8,0.2-10.4,4.2c-1.7,4,0.2,8.8,4.2,10.4
					c0.1,0,0.1,0.1,0.2,0.1c35,14.3,61.3,44.3,70.8,80.8c0.9,3.5,4.1,6,7.7,6c0.7,0,1.4-0.1,2-0.3
					C469.4,390.5,472,386.2,470.9,381.9L470.9,381.9z"/>
				<path class="st5" d="M356.8,281.6c-5.6-0.7-11.2-1.1-16.9-1.1c-4.4,0-8,3.6-8,8s3.6,8,8,8c5,0,9.9,0.3,14.9,0.9
					c0.3,0,0.7,0.1,1,0.1c4.4,0,8-3.5,8-8C363.9,285.5,360.8,282,356.8,281.6z"/>
			</g>
		</g>
		<g>
			<path class="st8" d="M471.1,204.2c33.3,0,60.4,27,60.4,60.4s-27,60.4-60.4,60.4s-60.4-27-60.4-60.4l0,0
				c-0.1-33.3,26.7-60.2,60.1-60.4C470.8,204.2,471,204.2,471.1,204.2z"/>
			<polygon class="st9" points="504.6,247.9 461.6,290.9 437.7,266.9 447.5,257.4 461.6,271.4 494.8,238.3 			"/>
		</g>
	</g>
</g>
</svg>
