<svg xmlns="http://www.w3.org/2000/svg" xmlns:xlink="http://www.w3.org/1999/xlink" width="30" height="30" viewBox="0 0 30 30">
  <defs>
    <linearGradient id="linearGradient-2" x1="15" x2="15" y1="0" y2="30" gradientUnits="userSpaceOnUse">
      <stop offset="0" stop-color="rgb(51,225,255)"/>
      <stop offset="1" stop-color="rgb(51,153,255)"/>
    </linearGradient>
    <rect id="rect-3" width="24" height="24" x="3" y="3"/>
    <mask id="mask-4" maskContentUnits="userSpaceOnUse" maskUnits="userSpaceOnUse">
      <rect width="30" height="30" x="0" y="0" fill="black"/>
      <use fill="white" xlink:href="#rect-3"/>
    </mask>
    <rect id="rect-10" width="18" height="18" x="6" y="6"/>
    <mask id="mask-11" maskContentUnits="userSpaceOnUse" maskUnits="userSpaceOnUse">
      <rect width="30" height="30" x="0" y="0" fill="black"/>
      <use fill="white" xlink:href="#rect-10"/>
    </mask>
  </defs>
  <g>
    <ellipse cx="15" cy="15" fill="url(#linearGradient-2)" rx="15" ry="15"/>
    <use fill="none" xlink:href="#rect-3"/>
    <g mask="url(#mask-4)">
      <g>
        <path fill="none" stroke="rgb(255,255,255)" stroke-dasharray="0 0 0 0" stroke-linecap="round" stroke-linejoin="round" stroke-width="2" d="M16.75 7h-7C8.78350169 7 8 7.7163444 8 8.6v12.8c0 .8836556.78350169 1.6 1.75 1.6h10.5c.96649831 0 1.75-.7163444 1.75-1.6v-9.6L16.75 7z"/>
        <path fill="none" stroke="rgb(255,255,255)" stroke-dasharray="0 0 0 0" stroke-linecap="round" stroke-linejoin="round" stroke-width="2" d="M16.75 7v4.8H22"/>
        <path fill="none" stroke="rgb(255,255,255)" stroke-dasharray="0 0 0 0" stroke-linecap="round" stroke-linejoin="round" stroke-width="2" d="M17 15.8h-5.5"/>
        <path fill="none" stroke="rgb(255,255,255)" stroke-dasharray="0 0 0 0" stroke-linecap="round" stroke-linejoin="round" stroke-width="2" d="M17 19h-5.5"/>
        <path fill="none" stroke="rgb(255,255,255)" stroke-dasharray="0 0 0 0" stroke-linecap="round" stroke-linejoin="round" stroke-width="2" d="M11 12.6h.5"/>
      </g>
      <use fill="none" xlink:href="#rect-10"/>
      <g mask="url(#mask-11)"/>
    </g>
  </g>
</svg>
