<?xml version="1.0" encoding="utf-8"?>
<!-- Generator: Adobe Illustrator 17.0.0, SVG Export Plug-In . SVG Version: 6.00 Build 0)  -->
<!DOCTYPE svg PUBLIC "-//W3C//DTD SVG 1.1//EN" "http://www.w3.org/Graphics/SVG/1.1/DTD/svg11.dtd">
<svg version="1.1" id="Layer_1" xmlns="http://www.w3.org/2000/svg" xmlns:xlink="http://www.w3.org/1999/xlink" x="0px" y="0px"
	 width="46px" height="46px" viewBox="0 0 46 46" enable-background="new 0 0 46 46" xml:space="preserve">
<g>
	<path fill="#08667C" d="M44.181,23.065c0,11.565-9.375,20.941-20.941,20.941S2.299,34.631,2.299,23.065s9.376-20.94,20.941-20.94
		S44.181,11.5,44.181,23.065z"/>
	<path fill="#298291" d="M41.383,24.262c0,9.435-7.648,17.083-17.083,17.083S7.217,33.697,7.217,24.262S14.865,7.179,24.3,7.179
		S41.383,14.827,41.383,24.262z"/>
	<path fill="#2CAFCE" d="M2.403,25.165h41.674c-0.043,0.431-0.099,0.859-0.168,1.282H2.571C2.502,26.023,2.446,25.596,2.403,25.165
		L2.403,25.165z M4.165,31.717h38.151c0.191-0.42,0.368-0.848,0.532-1.282H3.633C3.797,30.87,3.974,31.297,4.165,31.717
		L4.165,31.717z M3.177,29.082h40.127c0.126-0.422,0.24-0.849,0.34-1.282H2.837C2.937,28.233,3.05,28.66,3.177,29.082z
		 M44.174,22.529H2.306c-0.004,0.178-0.007,0.357-0.007,0.536c0,0.25,0.004,0.498,0.013,0.746h41.855
		c0.009-0.248,0.013-0.496,0.013-0.746C44.181,22.886,44.178,22.707,44.174,22.529z M42.409,14.623H4.071
		c-0.185,0.42-0.357,0.848-0.515,1.282h39.369C42.767,15.471,42.595,15.043,42.409,14.623L42.409,14.623z M43.365,17.258H3.115
		c-0.122,0.422-0.23,0.85-0.325,1.282h40.901C43.595,18.108,43.487,17.68,43.365,17.258z M43.942,19.894H2.538
		c-0.064,0.423-0.116,0.851-0.155,1.282h41.713C44.058,20.745,44.006,20.317,43.942,19.894L43.942,19.894z"/>
	<path fill="#FF9F22" d="M21.669,14.9v2.013c0,0.308-0.204,0.578-0.5,0.663l-5.447,1.581l-3.531,0.984V35.11
		c0,0-0.043,1.032-0.12,1.197c-0.455,1.418-2.158,2.472-4.189,2.472c-2.379,0-4.308-1.447-4.308-3.231s1.929-3.231,4.308-3.231
		c0.613,0,1.196,0.096,1.723,0.269V19.91c0-0.031,0.001-0.062,0.003-0.092c0.063-1.438,1.038-2.683,2.432-3.081l8.728-2.469
		C21.21,14.143,21.669,14.442,21.669,14.9z M35.417,9.44c-0.581,0-1.052,0.471-1.052,1.052v10.315
		c-0.429-0.141-0.904-0.219-1.402-0.219c-1.936,0-3.506,1.177-3.506,2.629s1.57,2.629,3.506,2.629c1.652,0,3.038-0.857,3.408-2.011
		c0.062-0.135,0.097-0.284,0.097-0.443v-12.9C36.468,9.911,35.997,9.44,35.417,9.44L35.417,9.44z"/>
	<path fill="#FFC14F" d="M26.839,13.448v18.783c0,1.428-1.543,2.585-3.447,2.585s-3.447-1.157-3.447-2.585s1.543-2.585,3.447-2.585
		c0.298,0,0.586,0.028,0.862,0.081V16.72l-8.599,2.457c-0.44,0.126-0.879-0.205-0.879-0.663c0-1.499,0.994-2.817,2.435-3.228
		l7.749-2.214c0.145-0.074,0.305-0.121,0.475-0.136l0.526-0.15C26.401,12.66,26.839,12.99,26.839,13.448L26.839,13.448z
		 M43.466,5.876l-7.12,2.034c-1.134,0.324-1.928,1.338-1.979,2.507c-0.002,0.025-0.003,0.05-0.003,0.075v6.869
		c0,0.581,0.471,1.052,1.052,1.052s1.052-0.471,1.052-1.052V10.68l7.306-2.087c0.241-0.069,0.407-0.289,0.407-0.539V6.415
		C44.181,6.042,43.824,5.773,43.466,5.876z"/>
	<path fill="#FFE1AA" d="M25.547,22.713c-0.714,0-1.292-0.579-1.292-1.292V16.48c0-0.714,0.579-1.292,1.292-1.292
		s1.292,0.579,1.292,1.292v4.941C26.839,22.135,26.261,22.713,25.547,22.713L25.547,22.713z M35.417,14.395
		c0.581,0,1.052-0.471,1.052-1.052v-2.737c0-0.581-0.471-1.052-1.052-1.052s-1.052,0.471-1.052,1.052v2.737
		C34.365,13.924,34.836,14.395,35.417,14.395z"/>
	<path fill="#FF9F22" d="M28.689,8.931l0.387,0.708c0.015,0.027,0.038,0.05,0.065,0.065l0.708,0.387
		c0.113,0.062,0.113,0.225,0,0.287l-0.708,0.387c-0.027,0.015-0.05,0.038-0.065,0.065l-0.387,0.708
		c-0.062,0.113-0.225,0.113-0.287,0l-0.387-0.708c-0.015-0.027-0.038-0.05-0.065-0.065l-0.708-0.387
		c-0.113-0.062-0.113-0.225,0-0.287l0.708-0.387c0.027-0.015,0.05-0.038,0.065-0.065l0.387-0.708
		C28.464,8.818,28.627,8.818,28.689,8.931z"/>
	<path fill="#FFF5F5" d="M36.728,27.068l0.387,0.708c0.015,0.027,0.038,0.05,0.065,0.065l0.708,0.387
		c0.113,0.062,0.113,0.225,0,0.287l-0.708,0.387c-0.027,0.015-0.05,0.038-0.065,0.065l-0.387,0.708
		c-0.062,0.113-0.225,0.113-0.287,0l-0.387-0.708c-0.015-0.027-0.038-0.05-0.065-0.065l-0.708-0.387
		c-0.113-0.062-0.113-0.225,0-0.287l0.708-0.387c0.027-0.015,0.05-0.038,0.065-0.065l0.387-0.708
		C36.503,26.954,36.666,26.954,36.728,27.068z M11.978,24.279l-1.236,0.676c-0.113,0.062-0.113,0.225,0,0.287l1.236,0.676
		c0.027,0.015,0.05,0.038,0.065,0.065l0.676,1.236c0.062,0.113,0.225,0.113,0.287,0l0.676-1.236c0.015-0.027,0.038-0.05,0.065-0.065
		l1.236-0.676c0.113-0.062,0.113-0.225,0-0.287l-1.236-0.676c-0.027-0.015-0.05-0.038-0.065-0.065l-0.676-1.236
		c-0.062-0.113-0.225-0.113-0.287,0l-0.676,1.236C12.028,24.242,12.006,24.264,11.978,24.279z"/>
</g>
</svg>
