<?xml version="1.0" encoding="utf-8"?>
<!-- Generator: Adobe Illustrator 17.0.0, SVG Export Plug-In . SVG Version: 6.00 Build 0)  -->
<!DOCTYPE svg PUBLIC "-//W3C//DTD SVG 1.1//EN" "http://www.w3.org/Graphics/SVG/1.1/DTD/svg11.dtd">
<svg version="1.1" id="Layer_1" xmlns="http://www.w3.org/2000/svg" xmlns:xlink="http://www.w3.org/1999/xlink" x="0px" y="0px"
	 width="24px" height="20px" viewBox="-2.5 -0.5 24 20" enable-background="new -2.5 -0.5 24 20" xml:space="preserve">
<path fill="none" stroke="#A6A6A6" stroke-linecap="round" stroke-linejoin="round" stroke-dasharray="0,0,0,0" d="M18.998,8.974
	c0.004,1.393-0.322,2.767-0.95,4.011c-1.519,3.039-4.625,4.959-8.023,4.961c-1.393,0.004-2.767-0.322-4.011-0.95l-6.017,2.006
	l2.006-6.017c-0.628-1.243-0.954-2.618-0.95-4.011c0.001-3.398,1.921-6.503,4.961-8.023c1.243-0.628,2.618-0.954,4.011-0.95h0.527
	c4.556,0.251,8.194,3.888,8.445,8.444V8.974z"/>
</svg>
