<svg xmlns="http://www.w3.org/2000/svg" xmlns:xlink="http://www.w3.org/1999/xlink" width="18" height="18" viewBox="0 0 18 18">
  <defs>
    <rect id="rect-1" width="18" height="18" x="0" y="0"/>
    <mask id="mask-2" maskContentUnits="userSpaceOnUse" maskUnits="userSpaceOnUse">
      <rect width="18" height="18" x="0" y="0" fill="black"/>
      <use fill="white" xlink:href="#rect-1"/>
    </mask>
  </defs>
  <g>
    <use fill="none" xlink:href="#rect-1"/>
    <g mask="url(#mask-2)">
      <path fill="none" stroke="rgb(133,133,133)" stroke-dasharray="0 0 0 0" stroke-linecap="round" stroke-linejoin="round" stroke-width="1.75" d="M9.25 3H4c-.82842712 0-1.5.67157288-1.5 1.5V15c0 .82842712.67157288 1.5 1.5 1.5h10.5c.82842712 0 1.5-.67157288 1.5-1.5V9.75"/>
      <path fill="none" stroke="rgb(133,133,133)" stroke-dasharray="0 0 0 0" stroke-linecap="round" stroke-linejoin="round" stroke-width="1.75" d="M14.875 1.875c.62132034-.62132034 1.62867966-.62132034 2.25 0s.62132034 1.62867966 0 2.25L10 11.25 7 12l.75-3 7.125-7.125h0z"/>
    </g>
  </g>
</svg>
