<?xml version="1.0" encoding="utf-8"?>
<!-- Generator: Adobe Illustrator 17.0.0, SVG Export Plug-In . SVG Version: 6.00 Build 0)  -->
<!DOCTYPE svg PUBLIC "-//W3C//DTD SVG 1.1//EN" "http://www.w3.org/Graphics/SVG/1.1/DTD/svg11.dtd">
<svg version="1.1" id="Layer_1" xmlns="http://www.w3.org/2000/svg" xmlns:xlink="http://www.w3.org/1999/xlink" x="0px" y="0px"
	 width="296px" height="276px" viewBox="0 0 296 276" enable-background="new 0 0 296 276" xml:space="preserve">
<circle fill="#CAE2FF" stroke="#FFFFFF" stroke-miterlimit="10" cx="148" cy="138" r="132.96"/>
<g>
	<circle fill="#FFB69F" cx="69.816" cy="173.762" r="13.377"/>
	<circle fill="#FFB69F" cx="121.93" cy="173.762" r="13.377"/>
	<path fill="#72C1E8" d="M165.245,187.139h17.593c9.533,0,17.26,7.728,17.26,17.26v69.446l0,0h-52.114l0,0v-69.446
		C147.985,194.867,155.712,187.139,165.245,187.139z"/>
	<circle fill="#FFB69F" cx="174.044" cy="173.762" r="13.377"/>
	<path fill="#FC5D3D" d="M217.361,187.139h17.593c9.533,0,17.26,7.728,17.26,17.26v69.446l0,0h-52.114l0,0v-69.446
		C200.101,194.867,207.829,187.139,217.361,187.139z"/>
	<circle fill="#FFB69F" cx="226.158" cy="173.762" r="13.377"/>
	<path fill="#FC5D3D" d="M78.612,187.139H61.02c-9.533,0-17.26,7.728-17.26,17.26v69.445h52.114v-69.445
		C95.873,194.867,88.145,187.139,78.612,187.139z"/>
	<circle fill="#FFB69F" cx="69.816" cy="221.378" r="13.377"/>
	<path fill="#72C1E8" d="M130.724,187.139h-17.591c-9.533,0-17.26,7.728-17.26,17.26v69.445h52.112v-69.445
		C147.985,194.867,140.257,187.139,130.724,187.139z"/>
	<circle fill="#FFB69F" cx="121.93" cy="221.378" r="13.377"/>
	<path fill="#FC5D3D" d="M165.245,234.755h17.593c9.533,0,17.26,7.728,17.26,17.26v21.828l0,0h-52.114l0,0v-21.828
		C147.985,242.483,155.712,234.755,165.245,234.755z"/>
	<circle fill="#FFB69F" cx="174.044" cy="221.378" r="13.377"/>
	<path fill="#72C1E8" d="M217.361,234.755h17.593c9.533,0,17.26,7.728,17.26,17.26v21.828l0,0h-52.114l0,0v-21.828
		C200.101,242.483,207.829,234.755,217.361,234.755z"/>
	<circle fill="#FFB69F" cx="226.158" cy="221.378" r="13.377"/>
	<path fill="#F0C020" d="M240.615,64.752H54.336c-4.766,0-8.63,3.864-8.63,8.63l0,0v51.76c0,4.766,3.864,8.63,8.63,8.63h81.666
		c1.817,0.001,3.438,1.139,4.056,2.848l7.413,20.559l7.417-20.555c0.618-1.709,2.239-2.847,4.056-2.848h81.667
		c4.766,0,8.63-3.864,8.63-8.63V73.382C249.242,68.617,245.38,64.754,240.615,64.752L240.615,64.752z"/>
	<path fill="#FC5D3D" d="M85.121,100.987h18.555v18.555H85.121L85.121,100.987z"/>
	<path fill="#FC5D3D" d="M120.721,90.631h18.555v28.911h-18.555V90.631z"/>
	<path fill="#72C1E8" d="M156.321,100.987h18.555v18.555h-18.555V100.987z"/>
	<path fill="#72C1E8" d="M191.92,82.432h18.555v37.11H191.92V82.432z"/>
	<path fill="#C5E5FF" d="M139.354,208.793c-1.192,0-2.158-0.966-2.158-2.158v-2.237c-0.004-3.573-2.9-6.468-6.473-6.473
		c-1.192,0-2.158-0.966-2.158-2.158c0-1.192,0.966-2.158,2.158-2.158c5.955,0.007,10.781,4.833,10.788,10.788v2.237
		C141.512,207.827,140.546,208.793,139.354,208.793z"/>
	<path fill="#FFCBC2" d="M191.471,267.372c-1.192,0-2.158-0.966-2.158-2.158v-1.726c0-1.192,0.966-2.158,2.158-2.158
		c1.192,0,2.158,0.966,2.158,2.158v1.726C193.628,266.406,192.662,267.372,191.471,267.372z M191.471,257.015
		c-1.192,0-2.158-0.966-2.158-2.158v-2.839c-0.004-3.573-2.899-6.469-6.473-6.473c-1.192,0-2.158-0.966-2.158-2.158
		c0-1.192,0.966-2.158,2.158-2.158c5.955,0.007,10.781,4.833,10.788,10.788v2.839c-0.001,1.191-0.967,2.155-2.158,2.155V257.015z"/>
	<path fill="#F9E5AF" d="M240.615,113.125c-1.192,0-2.158-0.966-2.158-2.158v-1.739c0-1.192,0.966-2.158,2.158-2.158
		c1.192,0,2.158,0.966,2.158,2.158v1.741C242.772,112.16,241.806,113.125,240.615,113.125z M240.615,101.891
		c-1.192,0-2.158-0.966-2.158-2.158V75.971c0-0.238-0.193-0.432-0.432-0.432h-11.868c-1.192,0-2.158-0.966-2.158-2.158
		c0-1.192,0.966-2.158,2.158-2.158h11.868c2.62,0.003,4.744,2.126,4.747,4.747v23.764c0,1.192-0.966,2.158-2.158,2.158V101.891z"/>
	<path d="M181.064,162.175c-0.765,0.905-0.657,2.257,0.242,3.029c0,0.009,0,0.009,0.009,0.009c0.908,0.772,2.27,0.662,3.042-0.246
		c0.772-0.908,0.662-2.27-0.246-3.042C183.189,161.188,181.853,161.298,181.064,162.175L181.064,162.175z"/>
	<path d="M236.771,185.074c6.264-5.863,6.589-15.693,0.727-21.957s-15.693-6.589-21.957-0.727
		c-6.264,5.863-6.589,15.693-0.727,21.957c0.234,0.25,0.476,0.492,0.727,0.727c-6.597,0.607-12.425,4.547-15.448,10.443
		c-3.037-5.881-8.855-9.815-15.444-10.443c4.012-3.756,5.742-9.352,4.548-14.716c-0.276-1.149-1.415-1.871-2.572-1.631
		c-1.16,0.253-1.896,1.399-1.642,2.56c0.001,0.004,0.002,0.008,0.003,0.012c1.363,6.044-2.432,12.049-8.476,13.413
		s-12.049-2.432-13.413-8.476s2.432-12.049,8.476-13.413c0.81-0.183,1.639-0.275,2.47-0.275c0.224,0,0.449,0,0.673,0.017
		c1.187,0.099,2.23-0.783,2.329-1.971c0.099-1.187-0.783-2.23-1.971-2.329c-0.036-0.003-0.072-0.005-0.108-0.006
		c-0.328-0.017-0.63-0.026-0.923-0.026c-8.563-0.021-15.521,6.904-15.542,15.466c-0.011,4.311,1.775,8.432,4.927,11.374
		c-6.59,0.626-12.41,4.56-15.448,10.443c-3.023-5.895-8.851-9.835-15.448-10.443c6.264-5.863,6.589-15.693,0.727-21.957
		s-15.693-6.589-21.957-0.727c-6.264,5.863-6.589,15.693-0.727,21.957c0.234,0.25,0.476,0.492,0.727,0.727
		c-6.597,0.607-12.425,4.547-15.448,10.443c-3.037-5.88-8.853-9.813-15.44-10.443c6.264-5.863,6.589-15.693,0.727-21.957
		c-5.863-6.264-15.693-6.589-21.957-0.727s-6.589,15.693-0.727,21.957c0.234,0.25,0.476,0.492,0.727,0.727
		c-9.97,0.95-17.589,9.316-17.606,19.332v69.439c0,1.192,0.966,2.158,2.158,2.158c1.192,0,2.158-0.966,2.158-2.158v-21.827
		c0.034-8.327,6.776-15.069,15.103-15.103h17.62c8.327,0.034,15.069,6.776,15.103,15.103v21.826c0,1.192,0.966,2.158,2.158,2.158
		c1.192,0,2.158-0.966,2.158-2.158v-21.826c0.034-8.327,6.776-15.069,15.103-15.103h17.588c8.327,0.034,15.069,6.776,15.103,15.103
		v21.826c0.002,1.192,0.97,2.156,2.161,2.154c1.189-0.002,2.152-0.965,2.154-2.154v-21.826c0.034-8.327,6.776-15.069,15.103-15.103
		h17.597c8.327,0.034,15.069,6.776,15.103,15.103v21.826c0,1.192,0.966,2.158,2.158,2.158s2.158-0.966,2.158-2.158v-21.826
		c0.034-8.327,6.776-15.069,15.103-15.103h17.588c8.33,0.027,15.075,6.773,15.103,15.103v21.826c0,1.192,0.966,2.158,2.158,2.158
		c1.192,0,2.158-0.966,2.158-2.158v-69.439C254.376,194.382,246.749,186.004,236.771,185.074L236.771,185.074z M214.937,173.761
		c0-6.196,5.023-11.219,11.219-11.219s11.219,5.023,11.219,11.219s-5.023,11.219-11.219,11.219l0,0
		c-6.193-0.008-11.21-5.027-11.218-11.219H214.937z M110.709,173.761c0-6.196,5.023-11.219,11.219-11.219
		s11.219,5.023,11.219,11.219s-5.023,11.219-11.219,11.219l0,0c-6.193-0.008-11.21-5.027-11.218-11.219H110.709z M58.595,173.761
		c0-6.196,5.023-11.219,11.219-11.219s11.219,5.023,11.219,11.219s-5.023,11.219-11.219,11.219l0,0
		c-6.193-0.008-11.211-5.026-11.218-11.219H58.595z M69.815,232.598c-6.196,0-11.219-5.023-11.219-11.219
		s5.023-11.219,11.219-11.219s11.219,5.023,11.219,11.219c-0.007,6.193-5.025,11.212-11.218,11.219H69.815z M80.43,232.684
		c6.262-5.865,6.584-15.695,0.72-21.957c-5.865-6.262-15.695-6.584-21.957-0.72s-6.584,15.695-0.72,21.957
		c0.232,0.248,0.472,0.488,0.72,0.72c-5.209,0.496-9.996,3.075-13.278,7.15v-35.431c0.034-8.327,6.776-15.069,15.103-15.103h17.597
		c8.327,0.034,15.069,6.776,15.103,15.103v35.431c-3.282-4.076-8.072-6.654-13.283-7.148L80.43,232.684z M121.925,232.598
		c-6.196,0-11.219-5.023-11.219-11.219s5.023-11.219,11.219-11.219c6.196,0,11.219,5.023,11.219,11.219
		c-0.007,6.191-5.023,11.21-11.214,11.219H121.925z M132.54,232.684c6.263-5.864,6.586-15.695,0.722-21.957
		s-15.695-6.586-21.957-0.722c-6.263,5.864-6.586,15.695-0.722,21.957c0.233,0.248,0.473,0.489,0.722,0.722
		c-5.21,0.477-10.003,3.05-13.279,7.129v-35.411c0.034-8.327,6.776-15.069,15.103-15.103h17.596
		c8.327,0.034,15.069,6.776,15.103,15.103v35.413c-3.276-4.079-8.069-6.653-13.279-7.129L132.54,232.684z M174.036,232.598
		c-6.196,0-11.219-5.023-11.219-11.219s5.023-11.219,11.219-11.219s11.219,5.023,11.219,11.219
		c-0.007,6.189-5.018,11.206-11.207,11.219H174.036z M184.651,232.684c6.262-5.865,6.584-15.695,0.72-21.957
		c-5.864-6.262-15.695-6.584-21.957-0.72c-6.262,5.864-6.584,15.695-0.72,21.957c0.232,0.248,0.472,0.488,0.72,0.72
		c-5.21,0.494-10,3.072-13.283,7.148v-35.43c0.034-8.327,6.776-15.069,15.103-15.103h17.597c8.327,0.034,15.069,6.776,15.103,15.103
		v35.431c-3.28-4.073-8.065-6.651-13.271-7.148L184.651,232.684z M226.147,232.598c-6.196,0-11.219-5.023-11.219-11.219
		s5.023-11.219,11.219-11.219s11.219,5.023,11.219,11.219c-0.007,6.189-5.019,11.206-11.208,11.219H226.147z M236.762,232.684
		c6.262-5.865,6.584-15.695,0.72-21.957c-5.864-6.262-15.695-6.584-21.957-0.72c-6.262,5.864-6.584,15.695-0.72,21.957
		c0.232,0.248,0.472,0.488,0.72,0.72c-5.209,0.494-9.997,3.07-13.279,7.145v-35.426c0.034-8.327,6.776-15.069,15.103-15.103h17.588
		c8.327,0.034,15.069,6.776,15.103,15.103v35.428c-3.278-4.071-8.06-6.646-13.263-7.144L236.762,232.684z"/>
	<path d="M54.338,135.931h81.668c0.908,0,1.719,0.57,2.028,1.424l7.413,20.557c0.407,1.12,1.644,1.699,2.764,1.292
		c0.601-0.218,1.074-0.691,1.292-1.292l7.413-20.557c0.309-0.854,1.12-1.424,2.028-1.424h64.925c1.192,0,2.158-0.966,2.158-2.158
		s-0.966-2.158-2.158-2.158h-64.925c-2.724,0.005-5.155,1.712-6.084,4.272l-5.385,14.93l-5.385-14.93
		c-0.93-2.56-3.36-4.267-6.084-4.272H54.338c-3.57-0.01-6.462-2.902-6.473-6.473V73.379c0.014-3.569,2.904-6.459,6.473-6.473
		h186.275c3.569,0.014,6.459,2.904,6.473,6.473v51.764c0.002,3.425-2.665,6.259-6.084,6.464c-1.191,0.048-2.117,1.052-2.069,2.242
		s1.052,2.117,2.242,2.069c0.029-0.001,0.057-0.003,0.086-0.005c5.696-0.345,10.139-5.064,10.141-10.771V73.379
		c-0.008-5.955-4.833-10.78-10.788-10.788H54.338c-5.955,0.008-10.78,4.833-10.788,10.788v51.764
		C43.558,131.097,48.384,135.923,54.338,135.931L54.338,135.931z"/>
	<circle cx="232.5" cy="133.773" r="2.158"/>
	<path d="M69.812,84.59c1.192,0,2.158-0.966,2.158-2.158c0-1.192-0.966-2.158-2.158-2.158h-5.938c-1.192,0-2.158,0.966-2.158,2.158
		v37.11c0,1.192,0.966,2.158,2.158,2.158h167.202c1.192,0,2.158-0.966,2.158-2.158c0-1.192-0.966-2.158-2.158-2.158h-18.443V82.432
		c0-1.192-0.966-2.158-2.158-2.158h-18.555c-1.192,0-2.158,0.966-2.158,2.158v34.952h-12.73v-16.397
		c0-1.192-0.966-2.158-2.158-2.158h-18.555c-1.192,0-2.158,0.966-2.158,2.158v16.397h-12.73V90.631c0-1.192-0.966-2.158-2.158-2.158
		h-18.555c-1.192,0-2.158,0.966-2.158,2.158v26.754h-12.73v-16.397c0-1.192-0.966-2.158-2.158-2.158H85.122
		c-1.192,0-2.158,0.966-2.158,2.158v16.397H66.032v-14.24h3.78c1.192,0,2.158-0.966,2.158-2.158c0-1.192-0.966-2.158-2.158-2.158
		h-3.78V84.59L69.812,84.59z M194.079,84.59h14.24v32.795h-14.24V84.59z M158.479,103.144h14.24v14.24h-14.24V103.144z
		 M122.879,92.788h14.24v24.596h-14.24V92.788z M87.28,103.144h14.24v14.24H87.28V103.144z"/>
</g>
</svg>
