<?xml version="1.0" encoding="utf-8"?>
<!-- Generator: Adobe Illustrator 17.0.0, SVG Export Plug-In . SVG Version: 6.00 Build 0)  -->
<!DOCTYPE svg PUBLIC "-//W3C//DTD SVG 1.1//EN" "http://www.w3.org/Graphics/SVG/1.1/DTD/svg11.dtd">
<svg version="1.1" id="Layer_1" xmlns="http://www.w3.org/2000/svg" xmlns:xlink="http://www.w3.org/1999/xlink" x="0px" y="0px"
	 width="17px" height="14px" viewBox="0 0 17 14" enable-background="new 0 0 17 14" xml:space="preserve">
<g>
	
		<path fill="none" stroke="#646464" stroke-width="2" stroke-linecap="round" stroke-linejoin="round" stroke-dasharray="0,0,0,0" d="
		M2.5,1h12C15.325,1,16,1.675,16,2.5v9c0,0.825-0.675,1.5-1.5,1.5h-12C1.675,13,1,12.325,1,11.5v-9C1,1.675,1.675,1,2.5,1L2.5,1z"/>
</g>
<line fill="none" stroke="#646464" stroke-width="2" stroke-linecap="round" stroke-linejoin="round" stroke-dasharray="0,0,0,0" x1="4.5" y1="5.125" x2="12.5" y2="5.125"/>
<g>
	<circle fill="#646464" cx="4.688" cy="8.875" r="0.813"/>
	<circle fill="#646464" cx="7.229" cy="8.875" r="0.813"/>
	<circle fill="#646464" cx="9.771" cy="8.875" r="0.813"/>
	<circle fill="#646464" cx="12.313" cy="8.875" r="0.813"/>
</g>
</svg>
