<svg xmlns="http://www.w3.org/2000/svg" xmlns:xlink="http://www.w3.org/1999/xlink" width="19" height="19" viewBox="0 0 19 19">
  <defs>
    <ellipse id="ellipse-3" cx="6.588" cy="6.588" rx=".794" ry=".794"/>
    <mask id="mask-4" x="0" y="0" maskContentUnits="userSpaceOnUse" maskUnits="userSpaceOnUse">
      <rect width="19" height="19" x="0" y="0" fill="black"/>
      <use fill="white" xlink:href="#ellipse-3"/>
    </mask>
    <ellipse id="ellipse-5" cx="11.882" cy="6.588" rx=".794" ry=".794"/>
    <mask id="mask-6" x="0" y="0" maskContentUnits="userSpaceOnUse" maskUnits="userSpaceOnUse">
      <rect width="19" height="19" x="0" y="0" fill="black"/>
      <use fill="white" xlink:href="#ellipse-5"/>
    </mask>
  </defs>
  <g>
    <path fill="none" stroke="rgb(128,128,128)" stroke-dasharray="0 0 0 0" stroke-linecap="round" stroke-linejoin="round" stroke-width="1" d="M5.900006 11.300024s1.3500015 1.800004 3.600004 1.800004 3.600004-1.800004 3.600004-1.800004"/>
    <ellipse cx="9.5" cy="9.5" fill="none" stroke="rgb(128,128,128)" stroke-dasharray="0 0 0 0" stroke-linecap="round" stroke-linejoin="round" stroke-width="1" rx="9" ry="9"/>
    <g>
      <use fill="rgb(0,109,234)" xlink:href="#ellipse-3"/>
      <use fill-opacity="0" stroke="rgb(128,128,128)" stroke-linecap="butt" stroke-linejoin="miter" stroke-width="2" mask="url(#mask-4)" xlink:href="#ellipse-3"/>
    </g>
    <g>
      <use fill="rgb(0,109,234)" xlink:href="#ellipse-5"/>
      <use fill-opacity="0" stroke="rgb(128,128,128)" stroke-linecap="butt" stroke-linejoin="miter" stroke-width="2" mask="url(#mask-6)" xlink:href="#ellipse-5"/>
    </g>
  </g>
</svg>
